{
  "name": "demo4",
  "description": "A theme based on Radix.",
  "browserSyncProxy" : "http://panopoly.dev",
  "bowerDir": "./bower_components",
  "css": {
    "file" : "demo4.style.scss",
    "src": [
      "scss/**/*.scss"
    ],
    "dest": "assets/css",
    "includePaths": [
      "./bower_components/bootstrap-sass/assets/stylesheets",
      "./bower_components/font-awesome/scss"
    ]
  },
  "js": {
    "file" : "demo4.script.js",
    "src": [
      "assets/js/**/*.js"
    ],
    "dest": "assets/js"
  },
  "images": {
    "src": [
      "assets/images/**/*"
    ],
    "dest": "assets/images/"
  },
  "fonts": {
    "src": [
      "./bower_components/font-awesome/fonts/**.*"
    ],
    "dest": "./assets/fonts/"
  }
}
